$date Sept 10 2008 12:00:05 $end
$version Example Simulator V0.1 $end
$timescale 100 ms $end
$scope module top $end
$var wire 1 ! output_bottle $end
$var wire 1 ' input_PB2 $end
$var wire 1 ( input_PB1 $end
$var wire 1 " output_TMR2 $end
$var wire 1 # output_TMR1 $end
$var wire 1 $ output_SOL $end
$var wire 1 % output_M1 $end
$var wire 1 & output_M2 $end
$var wire 1 ) input_LS $end
$var wire 1 * input_PE $end
$upscope $end
$enddefinitions $end
0 !
0 '
0 (
0 "
0 #
0 $
0 %
0 &
0 )
0 *
#5
1 '
1 )
1 *
#10
1 (
#15
0 *
#20
0 )
1 *
#25
0 '
1 &
#30
0 (
1 )
0 *
#35
1 '
1 (
1 #
0 &
1 *
#40
0 '
1 &
#45
1 '
0 #
1 $
1 %
0 &
0 )
0 *
#50
0 (
0 $
0 %
1 )
#55
0 '
1 *
#60
1 '
1 (
#65
0 '
0 (
0 *
#70
1 '
0 )
#75
0 '
1 (
1 &
1 )
#80
1 '
0 &
1 *
#85
0 '
0 (
0 )
0 *
#90
1 (
1 &
#95
0 (
1 %
#100
0 %
1 )
#105
1 #
1 *
#110
1 (
1 %
0 )
#115
0 (
1 $
0 %
1 )
0 *
#120
1 '
0 $
1 %
0 &
0 )
1 *
#125
1 (
0 #
0 %
1 )
0 *
#130
0 '
1 &
#135
1 *
#140
1 '
1 #
0 &
0 *
#145
0 '
0 (
#150
1 '
1 (
0 #
0 )
1 *
#155
0 '
0 (
1 )
0 *
#160
1 '
#165
1 (
0 )
#170
1 *
#175
0 '
0 (
1 )
#180
1 (
1 &
0 )
0 *
#185
1 '
0 (
0 &
1 )
#190
0 )
1 *
#195
1 )
#200
1 (
0 )
0 *
#205
0 '
1 &
#210
1 )
#215
1 '
0 (
1 #
0 &
#220
0 '
1 *
#225
1 '
0 #
0 *
#230
0 '
1 (
1 &
1 *
#235
1 '
1 %
0 &
0 )
#240
0 '
0 %
1 &
1 )
#250
1 #
0 *
#255
1 *
#260
1 '
0 (
0 &
#265
0 '
1 (
1 &
0 )
#270
1 '
0 (
0 &
1 )
#275
1 (
#280
0 '
0 #
1 &
#285
0 (
#290
1 (
1 #
0 *
#295
1 '
1 $
1 %
0 &
0 )
#300
0 '
0 #
0 $
0 %
1 &
#305
0 (
1 %
#310
0 %
1 )
1 *
#315
1 '
1 (
1 %
0 &
0 )
0 *
#320
0 %
1 *
#325
0 '
0 (
#330
1 '
1 (
1 )
0 *
#335
0 '
0 (
0 )
#340
1 (
1 &
1 )
#345
0 (
1 *
#350
1 '
1 %
0 &
0 )
#355
0 '
1 (
0 %
1 &
1 )
0 *
#360
1 %
0 )
#365
0 %
1 )
#370
1 '
1 %
0 &
0 )
#375
0 '
0 %
1 &
1 *
#380
0 (
1 %
0 *
#385
1 (
0 %
1 )
#390
1 '
1 #
0 &
#395
0 (
1 *
#400
1 (
0 #
#405
0 *
#410
0 )
1 *
#415
0 (
1 )
#420
0 '
1 (
1 &
0 )
0 *
#425
0 (
1 )
#430
1 (
1 %
0 )
#435
1 *
#440
1 '
0 (
0 %
0 &
1 )
0 *
#445
0 '
1 (
1 &
0 )
1 *
#450
1 %
0 *
#455
0 (
1 *
#460
1 '
1 (
0 &
0 *
#465
0 '
0 %
1 &
1 )
#470
1 %
0 )
1 *
#475
1 '
0 (
0 &
0 *
#480
0 '
1 (
0 %
1 &
1 )
#485
1 *
#490
1 %
0 )
0 *
#495
0 %
1 )
1 *
#500
0 (
1 %
0 )
0 *
#505
1 '
0 &
1 *
#510
1 (
0 %
0 *
#515
0 '
0 (
1 )
#525
1 '
#530
0 '
1 (
1 &
#535
0 (
#540
1 #
1 *
#545
1 (
#550
1 '
1 "
1 %
0 &
0 )
#555
0 '
0 #
0 %
1 &
#560
1 '
0 (
1 %
0 &
#565
1 (
0 %
1 )
#570
0 '
0 "
1 &
0 )
#575
0 (
1 )
#580
1 (
1 #
0 *
#585
1 '
1 %
0 &
0 )
1 *
#590
0 '
0 (
0 #
0 %
#595
1 '
1 (
#600
0 '
1 &
1 )
#605
0 (
0 *
#610
1 #
1 *
#615
1 (
#620
1 $
0 *
#625
1 '
0 (
0 $
0 &
1 *
#630
0 '
0 *
#635
1 (
0 #
1 &
0 )
1 *
#640
1 '
0 (
1 %
0 &
#645
1 (
0 %
0 *
#650
0 '
1 &
1 *
#655
1 )
#660
1 '
0 (
1 %
0 &
0 )
0 *
#665
1 (
0 %
1 )
#670
0 )
#675
0 (
1 )
#680
0 )
1 *
#685
1 (
1 )
#690
0 (
0 )
0 *
#695
0 '
1 (
1 &
1 *
#700
0 (
1 %
#705
0 *
#710
1 '
0 %
0 &
1 )
1 *
#720
0 *
#725
0 '
1 (
1 &
0 )
1 *
#730
1 '
0 (
1 %
0 &
#735
0 '
1 (
0 %
1 &
1 )
0 *
#740
0 (
1 %
0 )
1 *
#745
1 '
1 (
0 %
0 &
1 )
#750
0 '
0 (
0 )
#755
1 '
1 )
0 *
#760
0 '
1 (
1 &
1 *
#765
1 '
0 (
1 %
0 &
0 )
0 *
#770
0 '
1 (
0 %
1 &
1 )
#775
1 '
0 &
#780
0 (
0 )
#785
1 (
1 )
1 *
#790
0 '
0 (
0 )
#800
0 *
#805
1 (
1 &
1 )
#810
1 '
1 %
0 &
0 )
1 *
#815
0 '
0 (
0 %
0 *
#825
1 '
1 *
#830
1 )
#835
0 )
0 *
#840
0 '
1 )
1 *
#845
1 '
0 )
#850
0 '
1 )
0 *
#855
1 (
1 &
#860
1 '
0 &
1 *
#865
0 *
#870
0 '
0 (
#875
0 )
#880
1 '
1 (
1 )
#885
1 *
#890
0 )
0 *
#895
0 '
0 (
1 )
#900
1 (
1 &
0 )
1 *
#905
1 '
1 %
0 &
#910
0 (
0 %
#915
0 '
1 (
1 &
1 )
#920
0 (
1 %
0 )
0 *
#925
1 '
0 %
0 &
1 )
#930
0 '
1 (
1 &
0 )
1 *
#935
0 (
1 )
#940
1 '
1 #
0 &
#945
0 *
#950
1 (
0 #
1 *
#955
0 '
1 &
#960
1 '
0 (
1 %
0 &
0 )
0 *
#965
0 '
0 %
#970
1 )
1 *
#975
1 '
1 (
0 *
#980
0 (
0 )
#985
0 '
1 )
1 *
#990
0 )
0 *
#995
1 *
#1000
1 )
#1005
0 )
#1010
1 '
1 (
1 )
#1020
0 )
0 *
#1025
0 (
1 )
1 *
#1030
0 '
0 )
0 *
#1035
1 (
1 &
#1040
0 (
1 %
#1045
1 '
1 (
0 &
#1050
0 '
0 (
0 %
1 *
#1055
1 '
1 )
#1060
0 )
0 *
#1065
0 '
1 )
#1070
1 '
1 (
1 *
#1075
0 (
0 )
0 *
#1080
0 '
1 (
1 &
#1085
0 (
1 %
#1090
1 '
1 (
0 &
#1095
0 (
0 %
1 )
#1110
0 )
1 *
#1120
1 )
0 *
#1125
1 (
1 *
#1130
0 (
0 *
#1135
0 '
1 *
#1140
1 '
1 (
0 )
#1145
0 (
#1150
0 '
1 (
1 &
1 )
#1155
1 '
0 (
1 %
0 &
0 )
0 *
#1160
0 %
1 *
#1165
0 *
#1170
0 '
1 (
1 &
1 )
1 *
#1175
1 '
0 (
0 &
#1180
0 '
0 )
0 *
#1185
1 '
1 (
#1190
0 '
1 &
1 )
#1195
0 (
1 %
0 )
1 *
#1200
1 '
0 &
0 *
#1205
0 %
1 )
1 *
#1210
0 )
#1215
1 )
0 *
#1220
1 (
#1225
0 '
0 (
#1230
1 '
0 )
1 *
#1235
1 (
1 )
#1240
0 '
0 (
#1250
1 (
1 &
#1255
1 '
1 %
0 &
0 )
0 *
#1260
0 %
1 *
#1265
0 '
0 (
1 )
#1270
1 '
0 *
#1275
0 '
0 )
#1280
1 '
1 (
1 *
#1285
0 (
1 )
#1290
0 *
#1295
1 (
0 )
#1305
0 (
1 *
#1310
0 '
0 *
#1315
1 )
#1320
1 '
1 (
1 *
#1325
0 )
0 *
#1330
1 *
#1335
0 (
1 )
#1345
0 '
1 (
1 &
0 *
#1350
1 '
0 (
1 %
0 &
0 )
1 *
#1355
0 '
0 %
#1360
1 '
1 (
#1365
0 *
#1370
0 '
1 &
1 )
1 *
#1375
1 '
0 (
0 &
#1380
0 '
#1385
0 )
0 *
#1390
1 '
1 )
1 *
#1395
0 '
1 (
1 &
0 )
0 *
#1400
1 '
0 &
1 )
#1405
0 '
0 (
#1410
1 *
#1415
1 '
0 *
#1420
0 '
1 (
1 &
#1425
0 (
#1430
1 #
1 *
#1440
1 $
1 %
0 )
0 *
#1445
1 (
0 #
#1450
0 (
0 $
0 %
1 )
1 *
#1455
1 '
1 #
0 &
#1460
0 '
1 (
1 &
0 )
0 *
#1465
0 #
1 %
1 *
#1470
1 '
0 &
0 *
#1475
0 (
0 %
1 *
#1480
1 (
0 *
#1485
0 (
1 )
1 *
#1490
1 (
0 )
#1495
0 '
1 &
0 *
#1500
1 '
0 &
1 )
#1505
0 '
0 (
1 *
#1510
0 )
#1515
1 )
#1520
1 '
1 (
0 )
0 *
#1525
0 '
1 &
#1530
1 %
#1535
0 (
1 *
#1540
1 (
0 *
#1545
1 '
0 (
0 %
0 &
1 )
1 *
#1550
0 )
#1560
0 '
1 (
1 &
1 )
#1565
1 '
0 (
0 &
0 *
#1570
0 '
0 )
#1575
1 (
1 &
1 )
#1580
1 *
#1585
1 #
0 *
#1590
1 $
#1595
1 '
0 $
0 &
1 *
#1600
0 '
1 &
0 )
#1605
1 )
#1610
1 '
1 $
1 %
0 &
0 )
0 *
#1615
0 '
0 #
0 $
0 %
1 &
1 *
#1620
1 )
0 *
#1625
0 (
1 #
1 *
#1630
1 %
0 )
#1635
1 (
1 "
0 %
1 )
#1640
1 !
1 '
1 $
0 &
0 *
#1645
0 !
0 (
0 "
0 $
0 )
#1650
1 (
0 #
1 )
#1655
0 (
0 )
#1660
1 )
#1665
1 (
0 )
1 *
#1670
0 '
1 &
0 *
#1675
1 )
#1680
0 (
1 #
1 *
#1685
1 '
1 (
0 &
#1690
0 '
0 (
#1695
1 '
0 #
0 )
#1700
1 )
0 *
#1705
0 '
1 *
#1710
1 '
0 *
#1715
0 )
1 *
#1720
1 (
#1725
0 (
1 )
#1730
0 '
1 (
1 &
0 )
#1735
0 (
1 %
#1740
1 '
0 &
#1745
0 '
1 (
0 %
1 &
1 )
#1750
1 '
0 (
1 %
0 &
0 )
0 *
#1755
0 '
1 (
0 %
1 &
1 )
1 *
#1760
0 (
0 *
#1765
1 '
1 #
0 &
#1770
0 '
0 )
1 *
#1775
1 '
1 (
0 #
1 )
#1780
0 )
0 *
#1785
0 '
1 &
1 )
#1790
0 (
1 %
0 )
1 *
#1795
1 '
1 (
0 %
0 &
1 )
0 *
#1800
0 '
1 &
1 *
#1805
0 (
1 %
0 )
0 *
#1815
1 '
0 %
0 &
1 )
1 *
#1820
0 )
0 *
#1825
1 *
#1830
0 '
1 (
1 &
0 *
#1835
0 (
1 )
1 *
#1840
1 (
1 #
0 *
#1845
0 (
1 $
1 %
0 )
#1850
1 (
0 #
#1855
0 $
1 *
#1860
1 '
0 %
0 &
1 )
#1870
0 '
1 &
#1875
0 (
0 *
#1880
1 (
1 %
0 )
#1885
0 %
1 )
1 *
#1890
0 (
1 #
0 *
#1895
1 (
1 %
0 )
1 *
#1900
0 #
1 $
0 *
#1905
0 (
0 $
0 %
1 )
#1910
1 '
1 %
0 &
0 )
1 *
#1915
0 '
1 (
0 %
1 &
0 *
#1920
0 (
1 %
1 *
#1925
1 '
1 (
0 %
0 &
1 )
#1930
0 (
0 *
#1940
0 )
#1950
1 (
1 *
#1955
1 )
#1960
0 (
0 )
0 *
#1965
0 '
1 *
#1970
1 '
#1975
1 (
1 )
0 *
#1980
0 )
#1985
0 '
1 &
#1990
0 (
1 %
#1995
1 (
0 %
1 )
1 *
#2000
1 '
1 #
0 &
#2005
0 '
1 &
0 *
#2010
0 (
0 #
1 %
0 )
1 *
#2015
1 '
0 %
0 &
1 )
0 *
#2020
0 '
0 )
1 *
#2025
1 '
0 *
#2030
0 '
1 )
#2035
0 )
1 *
#2040
1 '
1 (
1 )
#2045
0 '
0 (
0 )
#2050
1 '
#2055
0 '
#2060
0 *
#2065
1 )
#2075
1 '
1 *
#2080
0 *
#2085
1 (
#2090
0 (
#2095
0 '
1 (
1 &
0 )
#2100
1 '
0 &
1 )
1 *
#2105
0 '
0 (
0 )
0 *
#2110
1 )
#2115
1 (
1 &
#2120
0 (
1 %
0 )
1 *
#2125
1 '
1 (
0 &
0 *
#2130
0 %
1 )
#2135
0 '
1 &
0 )
1 *
#2140
1 )
0 *
#2145
1 '
1 #
0 &
1 *
#2150
0 (
0 )
#2155
0 #
#2160
1 (
#2165
0 (
1 )
0 *
#2170
0 )
1 *
#2175
1 (
1 )
0 *
#2180
0 '
1 &
1 *
#2185
1 '
0 &
#2190
0 '
0 (
0 )
#2195
1 (
1 &
1 )
0 *
#2200
1 '
0 (
1 %
0 &
0 )
#2205
0 %
1 )
#2210
0 '
0 )
#2215
1 (
1 &
1 )
1 *
#2220
0 *
#2225
1 '
1 #
0 &
#2230
0 (
1 *
#2235
0 '
0 #
0 )
#2240
1 (
1 &
1 )
#2245
1 '
0 (
0 &
0 *
#2250
0 '
1 (
1 &
0 )
#2255
1 '
1 %
0 &
#2260
0 %
1 )
#2265
0 '
0 (
1 *
#2270
1 '
1 (
0 )
0 *
#2275
0 '
1 &
1 )
1 *
#2280
1 '
0 (
0 &
#2285
1 (
0 )
#2290
0 (
1 )
0 *
#2295
1 *
#2300
0 '
1 (
1 &
0 *
#2305
0 (
#2310
1 (
1 %
0 )
1 *
#2315
0 %
1 )
#2320
1 "
1 %
0 )
#2325
1 !
0 %
1 )
#2330
0 (
1 #
1 %
#2335
0 !
0 "
1 $
0 )
0 *
#2340
1 '
0 %
0 &
1 )
#2345
0 $
1 *
#2350
0 '
0 #
0 )
#2355
1 '
1 (
#2360
0 (
#2365
0 '
1 (
1 &
#2370
1 '
1 %
0 &
0 *
#2375
0 %
1 *
#2380
1 )
#2385
0 '
0 (
#2390
1 '
1 (
0 *
#2395
1 *
#2400
0 )
0 *
#2405
0 (
#2415
0 '
1 *
#2420
1 '
1 )
#2425
1 (
0 )
#2430
0 *
#2435
0 (
1 )
#2440
1 (
#2445
0 )
#2450
0 '
1 &
1 )
#2455
1 '
0 (
1 %
0 &
0 )
#2460
0 %
#2465
1 )
1 *
#2475
0 )
0 *
#2480
0 '
1 (
1 &
1 )
#2485
1 '
0 (
1 %
0 &
0 )
1 *
#2490
0 %
#2495
1 (
1 )
0 *
#2500
0 (
0 )
#2505
0 '
1 (
1 &
1 )
#2510
1 %
0 )
1 *
#2515
1 '
0 &
0 *
#2520
0 '
0 (
0 %
1 )
1 *
#2525
1 '
1 (
0 *
#2530
0 '
1 &
0 )
1 *
#2535
1 '
1 %
0 &
0 *
#2540
0 '
0 (
0 %
1 )
#2545
1 '
0 )
1 *
#2550
0 '
#2555
1 (
1 &
1 )
#2560
1 %
0 )
#2565
0 *
#2575
1 '
0 (
0 &
#2580
0 %
1 *
#2585
1 (
1 )
#2590
0 '
1 &
0 )
0 *
#2595
0 (
1 )
#2600
1 '
1 (
1 #
0 &
#2605
0 '
1 &
0 )
#2610
1 '
0 #
1 $
1 %
0 &
#2615
0 '
0 (
0 $
0 %
1 )
1 *
#2620
1 '
#2625
0 '
0 )
#2630
0 *
#2635
1 '
1 )
1 *
#2640
0 '
0 )
0 *
#2645
1 '
#2650
0 '
1 (
1 &
1 *
#2655
1 '
0 (
1 %
0 &
#2660
0 %
1 )
0 *
#2665
0 '
0 )
1 *
#2670
1 '
#2675
1 (
1 )
0 *
#2680
0 '
1 &
0 )
#2685
1 '
0 (
0 &
1 )
1 *
#2695
0 '
1 (
1 &
0 )
0 *
#2700
1 %
#2705
0 (
0 %
1 )
1 *
#2710
1 '
1 (
1 #
0 &
#2715
0 )
#2720
0 #
0 *
#2725
0 '
0 (
1 )
#2730
1 (
1 &
1 *
#2735
0 (
1 %
0 )
#2740
1 '
0 &
#2745
1 (
0 %
1 )
#2750
0 '
1 &
0 )
0 *
#2755
1 '
0 (
1 %
0 &
#2760
0 '
1 (
0 %
1 &
1 *
#2765
1 '
0 (
1 %
0 &
#2770
1 (
0 %
1 )
0 *
#2775
0 (
#2780
1 (
#2785
0 )
#2790
0 '
0 (
1 *
#2795
1 '
#2800
0 '
1 (
1 &
1 )
#2805
0 (
#2810
1 #
0 *
#2815
1 (
1 %
0 )
1 *
#2820
1 '
0 %
0 &
1 )
#2825
0 '
0 (
#2830
1 (
0 #
1 &
0 )
#2835
0 (
1 )
0 *
#2840
1 %
0 )
1 *
#2850
1 (
1 "
#2855
1 !
0 %
1 )
#2860
0 !
1 '
0 (
1 %
0 &
0 )
0 *
#2865
0 '
1 (
0 "
0 %
1 &
1 *
#2870
1 '
1 %
0 &
#2875
0 '
0 (
0 %
0 *
#2880
1 '
1 (
#2885
0 (
1 )
1 *
#2890
0 '
1 (
1 &
0 *
#2895
0 (
#2900
1 %
0 )
#2905
1 (
#2910
1 '
0 (
0 &
#2915
0 '
0 %
#2920
1 '
1 (
#2925
0 '
0 (
1 *
#2930
1 (
1 &
0 *
#2935
0 (
1 %
1 *
#2940
1 '
1 (
0 %
0 &
1 )
0 *
#2945
0 (
1 *
#2950
0 )
#2955
0 '
1 )
#2960
1 '
1 (
0 )
#2965
1 )
#2970
0 '
0 (
#2975
1 '
1 (
0 )
0 *
#2980
0 '
1 &
#2985
1 '
1 %
0 &
#2990
0 %
1 *
#2995
0 '
1 &
0 *
#3000
1 )
1 *
#3005
1 '
0 (
1 %
0 &
0 )
0 *
#3010
0 %
1 )
1 *
#3015
0 '
#3020
1 '
#3025
0 '
#3030
0 )
0 *
#3035
1 (
1 &
1 *
#3040
1 '
0 &
1 )
#3045
0 )
#3050
0 (
#3060
1 (
#3065
0 *
#3070
0 '
0 (
1 *
#3075
1 )
#3080
1 (
1 &
0 *
#3085
0 (
#3090
1 #
#3095
1 '
1 (
1 $
1 %
0 &
0 )
#3100
0 #
0 $
0 %
1 )
1 *
#3105
0 )
0 *
#3110
0 '
1 &
1 *
#3115
1 %
#3125
0 (
0 %
1 )
0 *
#3130
1 '
1 %
0 &
0 )
#3135
0 %
1 )
1 *
#3140
1 (
#3145
0 )
#3150
0 *
#3155
0 '
1 &
1 *
#3160
0 (
1 )
0 *
#3165
1 (
1 #
#3170
1 '
0 (
0 &
1 *
#3175
1 (
0 )
0 *
#3180
0 '
0 #
1 &
#3185
0 (
1 )
1 *
#3190
1 '
1 (
1 #
0 &
0 *
#3195
0 )
#3200
0 '
0 #
1 &
#3205
1 '
0 &
1 )
#3210
0 )
#3215
0 '
1 &
1 )
1 *
#3220
0 (
1 %
0 )
#3225
1 '
0 &
#3230
0 %
1 )
#3235
0 '
#3240
1 '
1 (
0 *
#3245
0 '
0 (
0 )
1 *
#3250
1 (
1 &
#3255
1 '
0 (
1 %
0 &
#3260
0 %
1 )
#3265
0 '
0 )
#3270
1 (
1 &
1 )
0 *
#3275
1 '
0 (
0 &
#3280
0 '
1 (
1 &
0 )
1 *
#3285
1 %
#3290
1 '
0 (
0 %
0 &
1 )
0 *
#3295
0 '
1 *
#3300
1 (
1 &
0 )
#3305
1 )
0 *
#3310
1 '
0 (
1 #
0 &
1 *
#3315
1 (
0 *
#3320
0 (
0 #
1 *
#3325
0 '
1 (
1 &
#3330
1 '
0 &
0 *
#3335
0 '
0 (
0 )
#3345
1 (
1 &
1 *
#3350
0 (
1 )
#3355
1 #
0 *
#3360
1 '
1 (
1 $
1 %
0 &
0 )
#3365
0 #
0 $
0 %
1 )
#3370
0 '
1 &
0 )
#3375
1 '
0 (
1 %
0 &
#3380
0 '
0 %
1 *
#3385
1 '
1 (
0 *
#3390
0 '
0 (
#3395
1 )
#3400
1 (
1 &
#3405
1 '
0 &
#3410
0 )
#3415
1 *
#3420
0 '
0 (
1 )
0 *
#3425
1 '
0 )
#3430
0 '
#3435
1 '
1 )
1 *
#3440
0 '
0 *
#3450
1 '
0 )
#3455
0 '
#3460
1 '
1 )
#3465
0 '
1 (
1 &
#3470
1 %
0 )
#3475
1 *
#3480
0 (
0 *
#3485
1 '
1 (
0 &
#3490
0 %
1 )
1 *
#3495
0 '
0 (
0 *
#3500
1 '
#3505
0 '
0 )
#3510
1 (
1 &
#3515
1 %
1 *
#3520
0 %
1 )
#3525
1 '
0 (
1 %
0 &
0 )
0 *
#3530
0 %
#3535
1 (
1 *
#3540
0 (
1 )
#3545
0 '
0 *
#3550
1 '
0 )
1 *
#3555
0 '
0 *
#3565
1 (
1 &
1 )
#3570
1 *
#3575
1 #
0 *
#3580
1 $
1 %
0 )
#3585
1 '
0 (
0 #
0 $
0 &
1 *
#3590
0 '
0 %
1 )
#3595
0 *
#3600
1 (
1 &
0 )
1 *
#3605
1 '
0 (
0 &
1 )
#3610
0 '
1 (
1 &
#3615
1 '
0 (
0 &
0 *
#3620
0 '
1 (
1 &
0 )
#3625
0 (
1 )
1 *
#3630
1 '
1 (
1 %
0 &
0 )
0 *
#3635
0 %
1 )
1 *
#3640
0 '
0 (
0 *
#3645
1 (
1 &
0 )
#3650
1 '
0 &
1 )
1 *
#3655
0 '
1 &
#3660
1 '
1 %
0 &
0 )
0 *
#3665
0 '
0 %
1 &
1 )
1 *
#3670
0 *
#3675
1 '
1 #
0 &
1 *
#3680
0 *
#3685
0 #
0 )
#3690
0 '
0 (
1 )
#3695
1 '
1 (
0 )
#3700
0 '
0 (
1 *
#3705
1 '
1 (
0 *
#3710
0 (
#3720
1 (
#3725
0 (
#3730
1 *
#3735
1 )
0 *
#3740
0 '
1 (
1 &
1 *
#3745
1 '
0 (
1 %
0 &
0 )
#3750
1 (
0 %
#3755
1 )
0 *
#3760
0 '
0 (
#3765
1 '
1 (
0 )
#3770
0 (
1 )
#3780
0 '
1 (
1 &
0 )
#3785
1 %
1 *
#3790
1 '
0 (
0 &
0 *
#3795
1 (
0 %
1 )
#3800
0 '
1 &
1 *
#3805
1 '
0 (
1 %
0 &
0 )
#3810
0 '
1 (
0 %
1 &
#3815
1 '
0 &
1 )
0 *
#3820
0 '
0 (
0 )
#3825
1 '
1 (
1 )
1 *
#3830
0 '
0 (
0 )
0 *
#3835
1 '
1 (
1 )
1 *
#3840
0 )
#3845
0 (
0 *
#3850
0 '
1 (
1 &
1 *
#3855
1 '
0 (
0 &
1 )
0 *
#3860
0 '
1 (
1 &
1 *
#3865
1 %
0 )
0 *
#3870
1 '
0 (
0 %
0 &
1 )
1 *
#3875
1 (
0 )
0 *
#3880
0 '
0 (
1 )
1 *
#3885
1 (
1 &
0 *
#3895
1 #
1 *
#3900
1 '
0 (
0 &
#3905
1 (
0 *
#3910
0 (
0 #
0 )
#3915
1 (
1 )
1 *
#3920
0 '
1 &
0 )
#3925
1 '
0 &
1 )
0 *
#3930
0 '
0 (
1 *
#3935
1 '
0 )
#3940
1 )
0 *
#3945
1 *
#3950
0 '
1 (
1 &
0 *
#3955
1 '
0 (
1 %
0 &
0 )
1 *
#3960
0 '
1 (
0 %
1 &
1 )
#3965
0 (
1 %
0 )
#3970
1 (
0 %
1 )
0 *
#3975
1 '
0 (
1 %
0 &
0 )
1 *
#3980
0 %
0 *
#3985
1 (
1 )
#3990
0 )
#3995
0 '
1 &
1 )
#4000
1 '
1 %
0 &
0 )
#4005
0 (
0 %
#4010
0 '
1 (
1 &
1 *
#4015
1 )
#4020
0 (
1 #
#4025
1 '
1 (
1 "
1 %
0 &
0 )
#4030
0 '
0 (
0 #
0 %
1 )
0 *
#4035
0 "
0 )
#4040
1 (
1 &
#4045
1 %
#4050
1 '
0 (
0 &
1 *
#4055
0 '
1 (
0 %
1 &
#4060
0 (
1 %
#4065
1 '
0 %
0 &
1 )
#4070
1 (
0 *
#4075
0 '
1 &
0 )
1 *
#4080
1 '
0 (
0 &
1 )
0 *
#4085
0 )
#4090
0 '
1 *
#4095
1 '
1 (
1 )
0 *
#4100
0 (
0 )
#4105
1 (
1 )
1 *
#4110
0 )
0 *
#4115
0 '
1 &
1 )
1 *
#4120
0 *
#4125
1 %
0 )
#4130
1 '
0 %
0 &
1 )
1 *
#4135
0 '
1 &
#4140
1 '
1 %
0 &
0 )
#4145
0 '
0 (
0 %
1 )
0 *
#4150
0 )
#4155
1 '
1 *
#4160
0 '
1 )
#4165
1 (
1 &
0 )
#4170
1 '
0 &
1 )
0 *
#4175
0 '
0 (
0 )
#4180
1 *
#4185
1 '
1 )
0 *
#4190
0 '
1 (
1 &
1 *
#4195
1 '
0 &
#4200
0 '
1 &
0 )
#4205
1 %
0 *
#4210
0 %
1 )
1 *
#4215
1 #
0 *
#4220
0 (
1 *
#4230
1 (
1 "
1 %
0 )
#4235
1 !
0 (
1 $
0 %
1 )
0 *
#4240
0 !
0 "
0 $
1 %
0 )
1 *
#4245
1 (
1 $
0 %
1 )
0 *
#4250
1 '
0 &
#4255
0 (
0 $
0 )
1 *
#4260
0 '
1 (
0 #
1 &
1 )
#4265
0 *
#4270
1 #
1 *
#4275
1 $
0 *
#4280
1 '
0 $
1 %
0 &
0 )
1 *
#4285
0 '
0 #
0 %
1 &
1 )
0 *
#4290
1 %
0 )
1 *
#4300
0 (
0 *
#4305
1 '
0 &
1 *
#4310
0 '
1 (
0 %
1 &
1 )
#4315
1 '
0 (
1 %
0 &
0 )
#4320
0 %
0 *
#4325
1 (
1 )
1 *
#4330
0 (
0 *
#4335
0 '
0 )
#4340
1 (
1 &
#4345
1 '
0 &
1 )
1 *
#4350
0 '
0 (
#4355
1 (
1 &
#4360
0 *
#4365
1 #
#4370
1 '
1 $
0 &
#4375
0 '
0 $
1 &
0 )
#4380
0 (
0 #
1 %
1 *
#4385
1 (
#4390
1 "
#4395
1 !
1 '
0 %
0 &
1 )
#4400
0 !
0 *
#4405
0 "
#4410
0 '
0 (
0 )
#4415
1 '
#4420
0 '
1 *
#4425
1 (
1 &
#4430
1 '
1 %
0 &
#4435
0 (
0 %
#4440
1 )
#4445
0 '
0 *
#4450
1 '
1 (
0 )
1 *
#4455
0 (
#4460
0 *
#4465
1 *
#4470
0 '
0 *
#4475
1 '
1 (
1 *
#4480
1 )
0 *
#4485
0 '
0 (
#4490
1 '
1 (
1 *
#4495
0 (
0 )
#4500
1 )
0 *
#4505
1 (
0 )
#4510
0 '
1 &
1 )
#4515
0 (
#4520
1 '
1 %
0 &
0 )
#4525
1 (
0 %
#4530
0 '
1 &
1 *
#4535
1 )
#4540
1 '
0 (
1 #
0 &
0 *
#4545
0 '
1 (
1 &
0 )
#4550
1 '
0 #
1 %
0 &
1 *
#4555
0 %
1 )
#4560
0 '
0 (
0 )
0 *
#4565
1 '
1 (
1 )
1 *
#4570
0 '
1 &
0 *
#4575
0 (
1 %
0 )
1 *
#4585
1 '
1 "
0 &
#4590
0 %
#4595
0 '
0 "
1 )
#4600
1 '
0 *
#4605
0 '
1 *
#4610
0 )
0 *
#4615
1 )
#4620
1 *
#4625
1 '
0 )
0 *
#4630
1 )
#4635
0 '
1 *
#4640
1 (
1 &
0 )
0 *
